{
  "clientId": "android",
  "redirectUri": "com.stg.makethon.bethub:/redirect",
  "authorizationScope": "openid email profile",
  "discoveryUri": "https://192.168.0.14:8443/auth/realms/bethub/.well-known/openid-configuration",
  "authUrl": "https://192.168.0.14:8443/auth/realms/bethub/protocol/openid-connect/auth",
  "tokenUrl": "https://192.168.0.14:8443/auth/realms/bethub/protocol/openid-connect/token",
  "httpsRequired": false
}